¿Existe Alguna Relación Entre Las Muertes Por Accidentes Automovilísticos Y El Índice De Fragilidad De Estados?
…
## # A tibble: 6 x 11
## # Groups:   Country [1]
##   ABB   Country   `Subregion name` Cause        Year Age       Male Female index
##   <chr> <chr>     <fct>            <chr>       <int> <chr>    <int>  <int> <int>
## 1 VEN   Venezuela Andean area      Road injury  2011 All-ages    60     12    78
## 2 VEN   Venezuela Andean area      Road injury  2012 All-ages    66     12    77
## 3 VEN   Venezuela Andean area      Road injury  2013 All-ages    69     13    75
## 4 VEN   Venezuela Andean area      Road injury  2014 All-ages    65     12    76
## 5 VEN   Venezuela Andean area      Road injury  2015 All-ages    65     12    78
## 6 VEN   Venezuela Andean area      Road injury  2016 All-ages    68     12    81
## # ... with 2 more variables: `%Change_Index` <dbl>, `%Change_male` <dbl>

road_fragile[,10:11]

## # A tibble: 280 x 2
##    `%Change_Index` `%Change_male`
##              <dbl>          <dbl>
##  1            0              0   
##  2            0              5.26
##  3            7.32           0   
##  4            9.76           0   
##  5           12.2           10.5 
##  6           12.2            5.26
##  7           12.2           10.5 
##  8           14.6           10.5 
##  9           14.6            5.26
## 10           17.1           10.5 
## # ... with 270 more rows
…
